<svg width="110" height="129" viewBox="0 0 110 129" fill="none" xmlns="http://www.w3.org/2000/svg">
<g clip-path="url(#clip0)" filter="url(#filter0_d)">
<path d="M87.347 18.8555C83.9023 16.3335 79.6184 15 74.9569 15H46.1771C45.3092 15 44.4664 15.1061 43.6701 15.313C40.2468 16.2026 29.0771 20.113 29.0842 33.1917L29.5119 37.9015C23.8912 37.8007 19.8936 38.8424 17.6478 41.0354C16.236 42.4132 15.5417 44.249 15.6401 46.3483V59.8391C15.6401 61.6325 16.304 63.3551 17.4957 64.6815L33.9748 83.3667C34.0374 83.4392 34.1269 83.471 34.1985 83.5312C34.2593 83.5807 34.2933 83.6532 34.3613 83.6956C34.415 83.7293 34.7496 83.9362 35.3241 84.2439V105.198C35.3241 105.81 35.6444 106.378 36.1687 106.701C36.4138 106.852 42.2582 110.4 51.0587 112.235H51.0605C55.2943 113.3 58.5118 113.834 61.833 113.834C65.1578 113.834 68.5936 113.3 73.2694 112.235C83.0595 110.594 88.1093 106.755 88.3187 106.59C88.7518 106.256 89.0041 105.743 89.0041 105.198V84.2722C89.6179 83.9291 89.9668 83.6992 90.0187 83.662C90.4661 83.3578 90.7488 82.8697 90.7882 82.3321L94.3706 33.0343C94.3742 27.1255 91.9441 22.2229 87.347 18.8555ZM19.2172 59.8409V46.3076C19.2172 46.2758 19.2172 46.2475 19.2154 46.2156C19.1563 45.0873 19.457 44.2419 20.162 43.5539C21.5757 42.1744 24.6786 41.4281 28.8534 41.4281C29.1737 41.4281 29.4994 41.4334 29.8322 41.4422L32.9137 75.4469L33.0479 76.9361L20.1799 62.347C19.559 61.6555 19.2172 60.7659 19.2172 59.8409ZM38.9012 85.9082C40.1717 86.4246 41.7106 86.9782 43.4804 87.5087C43.4929 87.5123 43.5054 87.5158 43.518 87.5193C43.9134 87.6378 44.3214 87.7546 44.7402 87.8695C44.8475 87.8996 44.9549 87.9279 45.0623 87.958C45.4219 88.0552 45.7888 88.149 46.1646 88.2427C46.3542 88.2905 46.5493 88.3364 46.7426 88.3824C47.0664 88.4585 47.3903 88.5345 47.7268 88.6088C48.0005 88.6689 48.2851 88.7255 48.566 88.7839C48.8523 88.8423 49.1351 88.9024 49.4303 88.9572C49.5001 88.9696 49.5645 88.9855 49.6361 88.9979V108.272C44.4145 106.935 40.5314 105.043 38.8994 104.169V85.9082H38.9012ZM53.2168 109.119L53.2275 77.7673C53.2275 77.2244 53.2902 76.6938 53.4083 76.1809C53.4101 76.1756 53.4101 76.1685 53.4118 76.1632C53.7554 74.6811 54.5768 73.36 55.7095 72.3041C55.9922 72.0424 56.3036 71.8142 56.6168 71.5896C56.7724 71.4782 56.9138 71.3526 57.0766 71.2518C57.4972 70.9919 57.9463 70.7779 58.4062 70.5851C58.4939 70.5497 58.569 70.4967 58.6585 70.463C59.2204 70.249 59.8091 70.0881 60.414 69.982C60.5679 69.9555 60.7325 69.959 60.8882 69.9395C61.3409 69.8812 61.7954 69.8317 62.2625 69.8352C62.4593 69.837 62.6454 69.8759 62.8387 69.89C67.2926 70.2614 71.1077 74.4088 71.1077 79.0672V87.5123V109.089C63.7316 110.681 59.8807 110.691 53.2168 109.119ZM85.4269 104.266C84.0043 105.158 80.3932 107.135 74.6902 108.362V89.0103C74.7761 88.9944 74.8549 88.9784 74.939 88.9625C75.2181 88.9112 75.4848 88.8582 75.7567 88.8051C76.0663 88.745 76.3759 88.6831 76.6765 88.6194C77.0004 88.5504 77.3136 88.4797 77.6249 88.409C77.8379 88.3594 78.0472 88.3117 78.2548 88.2604C78.6217 88.172 78.9795 88.0818 79.3285 87.9898C79.4412 87.9597 79.5522 87.9297 79.6631 87.8996C81.9661 87.2788 83.8916 86.6032 85.4269 85.9736V104.266ZM87.2862 81.1719C87.0536 81.3027 86.7476 81.4637 86.4004 81.6405C85.0798 82.3091 82.7982 83.3189 79.5987 84.2439C79.5611 84.2545 79.5289 84.2669 79.4913 84.2775C79.0637 84.3996 78.5966 84.518 78.1367 84.6365C77.8647 84.7055 77.6088 84.778 77.3261 84.847C76.961 84.9354 76.5656 85.015 76.1808 85.0981C75.7639 85.1883 75.3541 85.2821 74.9157 85.3652C74.8441 85.3793 74.7636 85.39 74.6902 85.4041V79.069V77.9725C74.6902 71.7506 69.4436 66.6641 62.8619 66.3228C62.7224 66.3139 62.5846 66.2945 62.4432 66.2909C62.3502 66.2892 62.2571 66.2892 62.1641 66.2892C59.963 66.2892 57.8962 66.818 56.096 67.7359C56.0406 67.7642 55.9887 67.7978 55.935 67.8261C55.6397 67.9817 55.3498 68.1444 55.0689 68.3213C54.9275 68.4097 54.7933 68.5105 54.6555 68.6043C54.473 68.7298 54.2905 68.8536 54.1169 68.988C53.9308 69.1313 53.7536 69.2869 53.5747 69.439C53.4637 69.5363 53.3492 69.63 53.2418 69.7308C53.1792 69.7892 53.1094 69.8405 53.0486 69.8989C52.8857 70.0563 52.739 70.2261 52.5869 70.3905C52.5529 70.4277 52.5171 70.463 52.4831 70.5002C52.2415 70.769 52.0143 71.0485 51.8031 71.335C51.7978 71.342 51.7906 71.3509 51.7852 71.358C51.3361 71.9663 50.9549 72.6083 50.6454 73.2804C50.6418 73.2893 50.6364 73.2981 50.6328 73.3069C50.4879 73.6253 50.3573 73.9489 50.2445 74.2779C50.2338 74.3097 50.2195 74.3416 50.2087 74.3752C50.1067 74.6794 50.0226 74.9906 49.9475 75.3037C49.9332 75.3638 49.9135 75.4239 49.9009 75.4841C49.8365 75.7812 49.79 76.0836 49.7506 76.3878C49.7399 76.4656 49.7238 76.5399 49.7148 76.6177C49.6737 76.9962 49.6522 77.3782 49.6522 77.7638L49.6433 85.3847C49.5753 85.3705 49.5001 85.3599 49.4321 85.3457C48.9973 85.2573 48.5893 85.1618 48.1741 85.0681C47.827 84.9903 47.4655 84.9142 47.1327 84.8311C46.6531 84.7126 46.2057 84.5888 45.7566 84.465C45.5239 84.4013 45.277 84.3394 45.0515 84.2757C44.4055 84.0883 43.79 83.899 43.212 83.7063C43.203 83.7027 43.1923 83.701 43.1833 83.6974C40.1484 82.6929 38.0548 81.6759 37.024 81.1277L33.259 39.5852C33.2572 39.5746 33.2519 39.5657 33.2501 39.5551L32.6578 33.0326C32.6578 22.9233 40.9984 19.662 44.5827 18.73C45.0802 18.6026 45.617 18.5372 46.1771 18.5372H74.9569C78.7899 18.5372 82.4332 19.6602 85.2176 21.6977C88.9182 24.4089 90.7953 28.222 90.8007 32.9088L87.2862 81.1719Z" fill="#045AFF"/>
<path d="M68.7976 75.6505C68.0979 74.959 66.9669 74.959 66.2673 75.6505L62.1641 79.7059L58.0608 75.6505C57.3612 74.959 56.2302 74.959 55.5306 75.6505C54.8309 76.342 54.8309 77.4597 55.5306 78.1513L59.6338 82.2066L55.5306 86.262C54.8309 86.9535 54.8309 88.0713 55.5306 88.7628C55.8795 89.1077 56.3376 89.281 56.7957 89.281C57.2538 89.281 57.7119 89.1077 58.0608 88.7628L62.1641 84.7074L66.2673 88.7628C66.6162 89.1077 67.0743 89.281 67.5324 89.281C67.9905 89.281 68.4486 89.1077 68.7976 88.7628C69.4972 88.0713 69.4972 86.9535 68.7976 86.262L64.6943 82.2066L68.7976 78.1513C69.4972 77.4597 69.4972 76.342 68.7976 75.6505Z" fill="#045AFF"/>
<path d="M68.7976 93.3363C68.0979 92.6447 66.9669 92.6447 66.2673 93.3363L62.1641 97.3916L58.0608 93.3363C57.3612 92.6447 56.2302 92.6447 55.5306 93.3363C54.8309 94.0278 54.8309 95.1455 55.5306 95.8371L59.6338 99.8924L55.5306 103.948C54.8309 104.639 54.8309 105.757 55.5306 106.449C55.8795 106.793 56.3376 106.967 56.7957 106.967C57.2538 106.967 57.7119 106.793 58.0608 106.449L62.1641 102.393L66.2673 106.449C66.6162 106.793 67.0743 106.967 67.5324 106.967C67.9905 106.967 68.4486 106.793 68.7976 106.449C69.4972 105.757 69.4972 104.639 68.7976 103.948L64.6943 99.8924L68.7976 95.8371C69.4972 95.1455 69.4972 94.0278 68.7976 93.3363Z" fill="#045AFF"/>
<path d="M65.743 23.843C64.7552 23.843 63.9536 24.6336 63.9536 25.6116C63.9536 26.5896 64.7552 27.3802 65.743 27.3802C74.6223 27.3802 81.8481 34.52 81.8481 43.2975C81.8481 44.2756 82.6498 45.0661 83.6375 45.0661C84.6253 45.0661 85.427 44.2756 85.427 43.2975C85.427 32.571 76.596 23.843 65.743 23.843Z" fill="#045AFF"/>
</g>
<defs>
<filter id="filter0_d" x="-10" y="0" width="130" height="128.834" filterUnits="userSpaceOnUse" color-interpolation-filters="sRGB">
<feFlood flood-opacity="0" result="BackgroundImageFix"/>
<feColorMatrix in="SourceAlpha" type="matrix" values="0 0 0 0 0 0 0 0 0 0 0 0 0 0 0 0 0 0 127 0"/>
<feOffset/>
<feGaussianBlur stdDeviation="7.5"/>
<feColorMatrix type="matrix" values="0 0 0 0 0.0156863 0 0 0 0 0.352941 0 0 0 0 1 0 0 0 1 0"/>
<feBlend mode="normal" in2="BackgroundImageFix" result="effect1_dropShadow"/>
<feBlend mode="normal" in="SourceGraphic" in2="effect1_dropShadow" result="shape"/>
</filter>
<clipPath id="clip0">
<rect width="100" height="98.8342" fill="white" transform="translate(5 15)"/>
</clipPath>
</defs>
</svg>
