<svg width="130" height="130" viewBox="0 0 130 130" fill="none" xmlns="http://www.w3.org/2000/svg">
<g filter="url(#filter0_d)">
<path d="M65 15C37.3858 15 15 37.3858 15 65C15 92.6142 37.3858 115 65 115C92.6142 115 115 92.6142 115 65C114.965 37.4005 92.5995 15.0354 65 15ZM67.145 110.603V101.808C67.145 100.624 66.1846 99.6632 65 99.6632C63.8154 99.6632 62.855 100.624 62.855 101.808V110.603C39.3348 109.48 20.5202 90.6652 19.3973 67.145H28.1918C29.3763 67.145 30.3368 66.1846 30.3368 65C30.3368 63.8154 29.3763 62.855 28.1918 62.855H19.3973C20.5202 39.3348 39.3348 20.5202 62.855 19.3973V28.1918C62.855 29.3763 63.8154 30.3368 65 30.3368C66.1846 30.3368 67.145 29.3763 67.145 28.1918V19.3973C90.6652 20.5202 109.48 39.3348 110.603 62.855H101.808C100.624 62.855 99.6632 63.8154 99.6632 65C99.6632 66.1846 100.624 67.145 101.808 67.145H101.83H110.624C109.5 90.673 90.6735 109.491 67.145 110.603Z" fill="#045AFF"/>
<path d="M87.6297 84.9486L67.145 64.1206V42.4775C67.145 41.2929 66.1846 40.3325 65 40.3325C63.8154 40.3325 62.855 41.2929 62.855 42.4775V65C62.8574 65.5628 63.0807 66.102 63.477 66.5015L84.5624 87.9516C85.3917 88.7986 86.7506 88.8131 87.5976 87.9837C88.4446 87.1544 88.4591 85.7956 87.6297 84.9486Z" fill="#045AFF"/>
</g>
<defs>
<filter id="filter0_d" x="0" y="0" width="130" height="130" filterUnits="userSpaceOnUse" color-interpolation-filters="sRGB">
<feFlood flood-opacity="0" result="BackgroundImageFix"/>
<feColorMatrix in="SourceAlpha" type="matrix" values="0 0 0 0 0 0 0 0 0 0 0 0 0 0 0 0 0 0 127 0"/>
<feOffset/>
<feGaussianBlur stdDeviation="7.5"/>
<feColorMatrix type="matrix" values="0 0 0 0 0.0156863 0 0 0 0 0.352941 0 0 0 0 1 0 0 0 1 0"/>
<feBlend mode="normal" in2="BackgroundImageFix" result="effect1_dropShadow"/>
<feBlend mode="normal" in="SourceGraphic" in2="effect1_dropShadow" result="shape"/>
</filter>
</defs>
</svg>
