<svg width="130" height="130" viewBox="0 0 130 130" fill="none" xmlns="http://www.w3.org/2000/svg">
<g filter="url(#filter0_d)">
<path d="M112.794 32.2794L108.383 27.8677C105.441 24.9265 101.03 24.9265 98.0882 27.8677L84.8529 41.103L62.7941 15.3677H22.3529C18.3087 15.3677 15 18.6764 15 22.7206V107.279C15 111.323 18.3087 114.632 22.3529 114.632H77.5C81.544 114.632 84.8529 111.323 84.8529 107.279V70.5147L112.794 42.5736C115.735 39.6324 115.735 35.2206 112.794 32.2794ZM62.7941 20.8823L80.0736 41.103H66.4706C64.6325 41.103 62.7941 39.2648 62.7941 37.4265V20.8823ZM81.1765 107.279C81.1765 109.118 79.7059 110.956 77.5 110.956H22.3529C20.5148 110.956 18.6765 109.485 18.6765 107.279V22.7206C18.6765 20.8825 20.1471 19.0441 22.3529 19.0441H59.1176V37.4265C59.1176 41.4707 62.4264 44.7794 66.4706 44.7794H81.1765L44.4118 81.5441L40.7353 99.9265L59.1176 96.25L81.1765 74.1912V107.279ZM47.7205 83.7498L56.9116 92.9409L45.5144 95.147L47.7205 83.7498ZM59.8529 90.3677L50.2941 80.8087L91.4706 39.6322L101.03 49.191L59.8529 90.3677ZM110.221 39.9999L103.971 46.2498L94.4118 36.691L100.662 30.4411C102.132 28.9705 104.338 28.9705 105.809 30.4411L110.221 34.8529C111.691 36.3235 111.691 38.5293 110.221 39.9999Z" fill="#045AFF"/>
</g>
<defs>
<filter id="filter0_d" x="0" y="0" width="130" height="130" filterUnits="userSpaceOnUse" color-interpolation-filters="sRGB">
<feFlood flood-opacity="0" result="BackgroundImageFix"/>
<feColorMatrix in="SourceAlpha" type="matrix" values="0 0 0 0 0 0 0 0 0 0 0 0 0 0 0 0 0 0 127 0"/>
<feOffset/>
<feGaussianBlur stdDeviation="7.5"/>
<feColorMatrix type="matrix" values="0 0 0 0 0.0156863 0 0 0 0 0.352941 0 0 0 0 1 0 0 0 1 0"/>
<feBlend mode="normal" in2="BackgroundImageFix" result="effect1_dropShadow"/>
<feBlend mode="normal" in="SourceGraphic" in2="effect1_dropShadow" result="shape"/>
</filter>
</defs>
</svg>
