<svg width="28" height="28" viewBox="0 0 28 28" fill="none" xmlns="http://www.w3.org/2000/svg">
<g clip-path="url(#clip0)">
<path d="M22.1288 17.345C21.5556 16.7481 20.8642 16.429 20.1314 16.429C19.4045 16.429 18.7072 16.7422 18.1103 17.3391L16.2429 19.2006C16.0892 19.1179 15.9356 19.0411 15.7879 18.9642C15.5751 18.8579 15.3742 18.7574 15.2028 18.651C13.4536 17.54 11.8639 16.0922 10.3392 14.2188C9.60051 13.2851 9.10411 12.4991 8.74362 11.7013C9.22821 11.2581 9.67734 10.7972 10.1146 10.354C10.2801 10.1885 10.4456 10.0171 10.6111 9.85164C11.8521 8.61062 11.8521 7.00322 10.6111 5.7622L8.99773 4.14888C8.81454 3.96569 8.62543 3.77658 8.44814 3.58747C8.09357 3.22108 7.72126 2.84286 7.33714 2.48829C6.76391 1.92097 6.0784 1.61958 5.35743 1.61958C4.63646 1.61958 3.93912 1.92097 3.34816 2.48829C3.34225 2.4942 3.34226 2.4942 3.33635 2.50011L1.32708 4.5271C0.570656 5.28353 0.139256 6.20542 0.0447028 7.27506C-0.0971274 9.00066 0.411097 10.6081 0.801131 11.66C1.75848 14.2425 3.18861 16.6358 5.32197 19.2006C7.91037 22.2913 11.0247 24.732 14.5823 26.4517C15.9415 27.0958 17.7557 27.8582 19.7827 27.9882C19.9068 27.9941 20.0369 28 20.155 28C21.5202 28 22.6666 27.5095 23.5649 26.5344C23.5708 26.5226 23.5826 26.5167 23.5885 26.5049C23.8958 26.1326 24.2504 25.7957 24.6227 25.4352C24.8768 25.1929 25.1368 24.9388 25.3909 24.6729C25.976 24.0642 26.2833 23.3551 26.2833 22.6282C26.2833 21.8954 25.9701 21.1921 25.3732 20.6012L22.1288 17.345ZM24.2445 23.5678C24.2386 23.5678 24.2386 23.5737 24.2445 23.5678C24.014 23.816 23.7776 24.0406 23.5235 24.2888C23.1394 24.6552 22.7494 25.0393 22.383 25.4707C21.7861 26.1089 21.0828 26.4103 20.161 26.4103C20.0723 26.4103 19.9778 26.4103 19.8891 26.4044C18.134 26.2921 16.5029 25.6066 15.2796 25.0216C11.9348 23.4023 8.99773 21.1035 6.55707 18.1901C4.5419 15.7612 3.19452 13.5156 2.30217 11.1045C1.75257 9.63299 1.55165 8.48652 1.64029 7.40507C1.69939 6.71365 1.96532 6.14042 2.45582 5.64992L4.47099 3.63475C4.76056 3.36291 5.06786 3.21517 5.36925 3.21517C5.74155 3.21517 6.04294 3.43973 6.23205 3.62884C6.23796 3.63475 6.24386 3.64066 6.24977 3.64657C6.61026 3.98342 6.95302 4.33208 7.3135 4.70439C7.4967 4.89349 7.6858 5.0826 7.87491 5.27762L9.48823 6.89093C10.1146 7.51735 10.1146 8.09649 9.48823 8.72291C9.31685 8.89429 9.15138 9.06566 8.98001 9.23113C8.4836 9.73936 8.01083 10.2121 7.4967 10.6731C7.48488 10.6849 7.47306 10.6908 7.46715 10.7026C6.95893 11.2108 7.05348 11.7073 7.15985 12.0441C7.16576 12.0618 7.17167 12.0796 7.17758 12.0973C7.59716 13.1137 8.18812 14.0711 9.08638 15.2116L9.09229 15.2175C10.7233 17.2268 12.443 18.7929 14.34 19.9925C14.5823 20.1461 14.8305 20.2703 15.0669 20.3884C15.2796 20.4948 15.4806 20.5953 15.6519 20.7016C15.6756 20.7135 15.6992 20.7312 15.7228 20.743C15.9238 20.8435 16.1129 20.8908 16.3079 20.8908C16.7984 20.8908 17.1057 20.5835 17.2062 20.483L19.2272 18.4619C19.4282 18.261 19.7473 18.0187 20.1196 18.0187C20.486 18.0187 20.7874 18.2492 20.9706 18.4501C20.9765 18.456 20.9765 18.456 20.9824 18.4619L24.2386 21.7181C24.8473 22.3209 24.8473 22.9414 24.2445 23.5678Z" fill="white"/>
<path d="M15.1319 6.66046C16.6802 6.92049 18.0867 7.65328 19.2095 8.7761C20.3323 9.89892 21.0592 11.3054 21.3252 12.8537C21.3902 13.2437 21.727 13.5156 22.1111 13.5156C22.1584 13.5156 22.1998 13.5097 22.247 13.5038C22.6844 13.4329 22.9739 13.0192 22.903 12.5819C22.5839 10.7085 21.6975 9.00066 20.3442 7.64737C18.9909 6.29407 17.283 5.40763 15.4097 5.08851C14.9723 5.0176 14.5646 5.30717 14.4878 5.73857C14.4109 6.16997 14.6946 6.58955 15.1319 6.66046Z" fill="white"/>
<path d="M27.9675 12.3514C27.4416 9.26659 25.9878 6.45954 23.754 4.22571C21.5202 1.99189 18.7131 0.538128 15.6283 0.0121743C15.1969 -0.0646504 14.7892 0.230829 14.7123 0.662229C14.6414 1.09954 14.931 1.5073 15.3683 1.58413C18.1222 2.05098 20.6337 3.357 22.6312 5.34854C24.6286 7.34598 25.9287 9.85756 26.3956 12.6114C26.4606 13.0015 26.7974 13.2733 27.1816 13.2733C27.2288 13.2733 27.2702 13.2674 27.3175 13.2615C27.7489 13.1965 28.0444 12.7828 27.9675 12.3514Z" fill="white"/>
</g>
<defs>
<clipPath id="clip0">
<rect width="28" height="28" fill="white"/>
</clipPath>
</defs>
</svg>
